Lista 4 AEDV (1) e (3) Victor
…
Mudou o estilo de visualizao dos dados;

Exerccio 2

imdb_simples <- c(imdb,"diretor","titulo","orcamento")

Exerccio 3

  select(imdb, contains("ator"))

## # A tibble: 3,807 x 3
##    ator_1          ator_2            ator_3              
##    <chr>           <chr>             <chr>               
##  1 CCH Pounder     Joel David Moore  Wes Studi           
##  2 Johnny Depp     Orlando Bloom     Jack Davenport      
##  3 Tom Hardy       Christian Bale    Joseph Gordon-Levitt
##  4 Daryl Sabara    Samantha Morton   Polly Walker        
##  5 J.K. Simmons    James Franco      Kirsten Dunst       
##  6 Brad Garrett    Donna Murphy      M.C. Gainey         
##  7 Chris Hemsworth Robert Downey Jr. Scarlett Johansson  
##  8 Henry Cavill    Lauren Cohan      Alan D. Purwin      
##  9 Kevin Spacey    Marlon Brando     Frank Langella      
## 10 Johnny Depp     Orlando Bloom     Jack Davenport      
## # ... with 3,797 more rows

Exerccio 4

select(imdb, -starts_with("ator"))

## # A tibble: 3,807 x 12
##    titulo     ano diretor  duracao cor   generos   pais  classificacao orcamento
##    <chr>    <int> <chr>      <int> <chr> <chr>     <chr> <chr>             <int>
##  1 Avatar   2009 James C~     178 Color Action|A~ USA   A partir de ~ 237000000
##  2 Pirates~  2007 Gore Ve~     169 Color Action|A~ USA   A partir de ~ 300000000
##  3 The Dar~  2012 Christo~     164 Color Action|T~ USA   A partir de ~ 250000000
##  4 John Ca~  2012 Andrew ~     132 Color Action|A~ USA   A partir de ~ 263700000
##  5 Spider-~  2007 Sam Rai~     156 Color Action|A~ USA   A partir de ~ 258000000
##  6 Tangled  2010 Nathan ~     100 Color Adventur~ USA   Livre         260000000
##  7 Avenger~  2015 Joss Wh~     141 Color Action|A~ USA   A partir de ~ 250000000
##  8 Batman ~  2016 Zack Sn~     183 Color Action|A~ USA   A partir de ~ 250000000
##  9 Superma~  2006 Bryan S~     169 Color Action|A~ USA   A partir de ~ 209000000
## 10 Pirates~  2006 Gore Ve~     151 Color Action|A~ USA   A partir de ~ 225000000
## # ... with 3,797 more rows, and 3 more variables: receita <int>,
## #   nota_imdb <dbl>, likes_facebook <int>

select(imdb, -contains("ator"))

## # A tibble: 3,807 x 12
##    titulo     ano diretor  duracao cor   generos   pais  classificacao orcamento
##    <chr>    <int> <chr>      <int> <chr> <chr>     <chr> <chr>             <int>
##  1 Avatar   2009 James C~     178 Color Action|A~ USA   A partir de ~ 237000000
##  2 Pirates~  2007 Gore Ve~     169 Color Action|A~ USA   A partir de ~ 300000000
##  3 The Dar~  2012 Christo~     164 Color Action|T~ USA   A partir de ~ 250000000
##  4 John Ca~  2012 Andrew ~     132 Color Action|A~ USA   A partir de ~ 263700000
##  5 Spider-~  2007 Sam Rai~     156 Color Action|A~ USA   A partir de ~ 258000000
##  6 Tangled  2010 Nathan ~     100 Color Adventur~ USA   Livre         260000000
##  7 Avenger~  2015 Joss Wh~     141 Color Action|A~ USA   A partir de ~ 250000000
##  8 Batman ~  2016 Zack Sn~     183 Color Action|A~ USA   A partir de ~ 250000000
##  9 Superma~  2006 Bryan S~     169 Color Action|A~ USA   A partir de ~ 209000000
## 10 Pirates~  2006 Gore Ve~     151 Color Action|A~ USA   A partir de ~ 225000000
## # ... with 3,797 more rows, and 3 more variables: receita <int>,
## #   nota_imdb <dbl>, likes_facebook <int>

imdb %>%
  select(-ator_1:-ator_3)

## # A tibble: 3,807 x 12
##    titulo     ano diretor  duracao cor   generos   pais  classificacao orcamento
##    <chr>    <int> <chr>      <int> <chr> <chr>     <chr> <chr>             <int>
##  1 Avatar   2009 James C~     178 Color Action|A~ USA   A partir de ~ 237000000
##  2 Pirates~  2007 Gore Ve~     169 Color Action|A~ USA   A partir de ~ 300000000
##  3 The Dar~  2012 Christo~     164 Color Action|T~ USA   A partir de ~ 250000000
##  4 John Ca~  2012 Andrew ~     132 Color Action|A~ USA   A partir de ~ 263700000
##  5 Spider-~  2007 Sam Rai~     156 Color Action|A~ USA   A partir de ~ 258000000
##  6 Tangled  2010 Nathan ~     100 Color Adventur~ USA   Livre         260000000
##  7 Avenger~  2015 Joss Wh~     141 Color Action|A~ USA   A partir de ~ 250000000
##  8 Batman ~  2016 Zack Sn~     183 Color Action|A~ USA   A partir de ~ 250000000
##  9 Superma~  2006 Bryan S~     169 Color Action|A~ USA   A partir de ~ 209000000
## 10 Pirates~  2006 Gore Ve~     151 Color Action|A~ USA   A partir de ~ 225000000
## # ... with 3,797 more rows, and 3 more variables: receita <int>,
## #   nota_imdb <dbl>, likes_facebook <int>

imdb %>%
  select(-ator_1,-ator_2,-ator_3)

## # A tibble: 3,807 x 12
##    titulo     ano diretor  duracao cor   generos   pais  classificacao orcamento
##    <chr>    <int> <chr>      <int> <chr> <chr>     <chr> <chr>             <int>
##  1 Avatar   2009 James C~     178 Color Action|A~ USA   A partir de ~ 237000000
##  2 Pirates~  2007 Gore Ve~     169 Color Action|A~ USA   A partir de ~ 300000000
##  3 The Dar~  2012 Christo~     164 Color Action|T~ USA   A partir de ~ 250000000
##  4 John Ca~  2012 Andrew ~     132 Color Action|A~ USA   A partir de ~ 263700000
##  5 Spider-~  2007 Sam Rai~     156 Color Action|A~ USA   A partir de ~ 258000000
##  6 Tangled  2010 Nathan ~     100 Color Adventur~ USA   Livre         260000000
##  7 Avenger~  2015 Joss Wh~     141 Color Action|A~ USA   A partir de ~ 250000000
##  8 Batman ~  2016 Zack Sn~     183 Color Action|A~ USA   A partir de ~ 250000000
##  9 Superma~  2006 Bryan S~     169 Color Action|A~ USA   A partir de ~ 209000000
## 10 Pirates~  2006 Gore Ve~     151 Color Action|A~ USA   A partir de ~ 225000000
## # ... with 3,797 more rows, and 3 more variables: receita <int>,
## #   nota_imdb <dbl>, likes_facebook <int>

select(imdb, -ator_1,-ator_2,-ator_3)

## # A tibble: 3,807 x 12
##    titulo     ano diretor  duracao cor   generos   pais  classificacao orcamento
##    <chr>    <int> <chr>      <int> <chr> <chr>     <chr> <chr>             <int>
##  1 Avatar   2009 James C~     178 Color Action|A~ USA   A partir de ~ 237000000
##  2 Pirates~  2007 Gore Ve~     169 Color Action|A~ USA   A partir de ~ 300000000
##  3 The Dar~  2012 Christo~     164 Color Action|T~ USA   A partir de ~ 250000000
##  4 John Ca~  2012 Andrew ~     132 Color Action|A~ USA   A partir de ~ 263700000
##  5 Spider-~  2007 Sam Rai~     156 Color Action|A~ USA   A partir de ~ 258000000
##  6 Tangled  2010 Nathan ~     100 Color Adventur~ USA   Livre         260000000
##  7 Avenger~  2015 Joss Wh~     141 Color Action|A~ USA   A partir de ~ 250000000
##  8 Batman ~  2016 Zack Sn~     183 Color Action|A~ USA   A partir de ~ 250000000
##  9 Superma~  2006 Bryan S~     169 Color Action|A~ USA   A partir de ~ 209000000
## 10 Pirates~  2006 Gore Ve~     151 Color Action|A~ USA   A partir de ~ 225000000
## # ... with 3,797 more rows, and 3 more variables: receita <int>,
## #   nota_imdb <dbl>, likes_facebook <int>

select(imdb, -ator_1:-ator_3)

## # A tibble: 3,807 x 12
##    titulo     ano diretor  duracao cor   generos   pais  classificacao orcamento
##    <chr>    <int> <chr>      <int> <chr> <chr>     <chr> <chr>             <int>
##  1 Avatar   2009 James C~     178 Color Action|A~ USA   A partir de ~ 237000000
##  2 Pirates~  2007 Gore Ve~     169 Color Action|A~ USA   A partir de ~ 300000000
##  3 The Dar~  2012 Christo~     164 Color Action|T~ USA   A partir de ~ 250000000
##  4 John Ca~  2012 Andrew ~     132 Color Action|A~ USA   A partir de ~ 263700000
##  5 Spider-~  2007 Sam Rai~     156 Color Action|A~ USA   A partir de ~ 258000000
##  6 Tangled  2010 Nathan ~     100 Color Adventur~ USA   Livre         260000000
##  7 Avenger~  2015 Joss Wh~     141 Color Action|A~ USA   A partir de ~ 250000000
##  8 Batman ~  2016 Zack Sn~     183 Color Action|A~ USA   A partir de ~ 250000000
##  9 Superma~  2006 Bryan S~     169 Color Action|A~ USA   A partir de ~ 209000000
## 10 Pirates~  2006 Gore Ve~     151 Color Action|A~ USA   A partir de ~ 225000000
## # ... with 3,797 more rows, and 3 more variables: receita <int>,
## #   nota_imdb <dbl>, likes_facebook <int>

7.2.2

Exercicio 1

filmes_ordenados <- c(arrange(imdb, ano, desc(receita)))

Exercicio 2

select(imdb, titulo, orcamento)%>%
  arrange(desc(orcamento))

## # A tibble: 3,807 x 2
##    titulo                                       orcamento
##    <chr>                                            <int>
##  1 Pirates of the Caribbean: At World's End    300000000
##  2 John Carter                                 263700000
##  3 Tangled                                     260000000
##  4 Spider-Man 3                                258000000
##  5 Spider-Man 3                                258000000
##  6 The Dark Knight Rises                       250000000
##  7 Avengers: Age of Ultron                     250000000
##  8 Batman v Superman: Dawn of Justice          250000000
##  9 Pirates of the Caribbean: On Stranger Tides 250000000
## 10 Captain America: Civil War                  250000000
## # ... with 3,797 more rows
…
Exercicio 2

curtos_legais <- (imdb %>% filter(duracao < 90) %>% filter(nota_imdb > 8.5))

Exercicio 3

as_tibble(imdb %>% 
     filter(str_detect(cor, "Color", ano < 1950)))

## Warning in stri_detect_regex(string, pattern, negate = negate, opts_regex =
## opts(pattern)): argument `negate` should be a single logical value; only the
## first element is used

## # A tibble: 3,644 x 15
##    titulo     ano diretor  duracao cor   generos   pais  classificacao orcamento
##    <chr>    <int> <chr>      <int> <chr> <chr>     <chr> <chr>             <int>
##  1 Avatar   2009 James C~     178 Color Action|A~ USA   A partir de ~ 237000000
##  2 Pirates~  2007 Gore Ve~     169 Color Action|A~ USA   A partir de ~ 300000000
##  3 The Dar~  2012 Christo~     164 Color Action|T~ USA   A partir de ~ 250000000
##  4 John Ca~  2012 Andrew ~     132 Color Action|A~ USA   A partir de ~ 263700000
##  5 Spider-~  2007 Sam Rai~     156 Color Action|A~ USA   A partir de ~ 258000000
##  6 Tangled  2010 Nathan ~     100 Color Adventur~ USA   Livre         260000000
##  7 Avenger~  2015 Joss Wh~     141 Color Action|A~ USA   A partir de ~ 250000000
##  8 Batman ~  2016 Zack Sn~     183 Color Action|A~ USA   A partir de ~ 250000000
##  9 Superma~  2006 Bryan S~     169 Color Action|A~ USA   A partir de ~ 209000000
## 10 Pirates~  2006 Gore Ve~     151 Color Action|A~ USA   A partir de ~ 225000000
## # ... with 3,634 more rows, and 6 more variables: receita <int>,
## #   nota_imdb <dbl>, likes_facebook <int>, ator_1 <chr>, ator_2 <chr>,
## #   ator_3 <chr>

as_tibble(imdb %>% 
     filter(diretor %in% c('Wes Anderson',"Woody Allen")))

## # A tibble: 25 x 15
##    titulo      ano diretor duracao cor   generos   pais  classificacao orcamento
##    <chr>     <int> <chr>     <int> <chr> <chr>     <chr> <chr>             <int>
##  1 The Life~  2004 Wes An~     119 Color Adventur~ USA   A partir de ~  50000000
##  2 Fantasti~  2009 Wes An~      87 Color Adventur~ USA   Livre          40000000
##  3 The Gran~  2014 Wes An~      99 Color Adventur~ USA   A partir de ~  25000000
##  4 The Roya~  2001 Wes An~     110 Color Comedy|D~ USA   A partir de ~  21000000
##  5 The Curs~  2001 Woody ~     103 Color Comedy|C~ USA   A partir de ~  26000000
##  6 To Rome ~  2012 Woody ~     112 Color Comedy|R~ USA   A partir de ~  17000000
##  7 Bullets ~  1994 Woody ~      98 Color Comedy|C~ USA   A partir de ~  20000000
##  8 Deconstr~  1997 Woody ~      96 Color Comedy    USA   A partir de ~  20000000
##  9 Everyone~  1996 Woody ~     101 Color Comedy|M~ USA   A partir de ~  20000000
## 10 Blue Jas~  2013 Woody ~      98 Color Drama     USA   A partir de ~  18000000
## # ... with 15 more rows, and 6 more variables: receita <int>, nota_imdb <dbl>,
## #   likes_facebook <int>, ator_1 <chr>, ator_2 <chr>, ator_3 <chr>

as_tibble(imdb %>% 
          filter(diretor=="Steven Spielberg") %>%
          arrange(desc(ano)) %>%
          select(titulo, ano))

## # A tibble: 24 x 2
##    titulo                                                ano
##    <chr>                                               <int>
##  1 Bridge of Spies                                     2015
##  2 Lincoln                                             2012
##  3 The Adventures of Tintin                            2011
##  4 War Horse                                           2011
##  5 Indiana Jones and the Kingdom of the Crystal Skull  2008
##  6 War of the Worlds                                   2005
##  7 The Terminal                                        2004
##  8 Minority Report                                     2002
##  9 Catch Me If You Can                                 2002
## 10 A.I. Artificial Intelligence                        2001
## # ... with 14 more rows

as_tibble(imdb %>% filter(generos %in% c("Comedy", "Action")))

## # A tibble: 196 x 15
##    titulo      ano diretor  duracao cor   generos pais  classificacao  orcamento
##    <chr>     <int> <chr>      <int> <chr> <chr>   <chr> <chr>              <int>
##  1 Batman &~  1997 Joel Sc~     125 Color Action  USA   A partir de 1~ 125000000
##  2 The Camp~  2012 Jay Roa~      85 Color Comedy  USA   A partir de 1~  95000000
##  3 The Hang~  2011 Todd Ph~     102 Color Comedy  USA   A partir de 1~  80000000
##  4 Batman R~  1992 Tim Bur~     126 Color Action  USA   A partir de 1~  80000000
##  5 Grown Up~  2013 Dennis ~     101 Color Comedy  USA   A partir de 1~  80000000
##  6 Jack and~  2011 Dennis ~      91 Color Comedy  USA   Livre           79000000
##  7 Grown Up~  2010 Dennis ~     102 Color Comedy  USA   A partir de 1~  80000000
##  8 Ted 2     2015 Seth Ma~     125 Color Comedy  USA   A partir de 1~  68000000
##  9 Dinner f~  2010 Jay Roa~     114 Color Comedy  USA   A partir de 1~        NA
## 10 Last Man~    NA <NA>          30 Color Comedy  USA   Outros                NA
## # ... with 186 more rows, and 6 more variables: receita <int>, nota_imdb <dbl>,
## #   likes_facebook <int>, ator_1 <chr>, ator_2 <chr>, ator_3 <chr>
…
## # A tibble: 1 x 15
##   titulo    ano diretor  duracao cor   generos     pais  classificacao orcamento
##   <chr>   <int> <chr>      <int> <chr> <chr>       <chr> <chr>             <int>
## 1 Deadpo~  2016 Tim Mil~     108 Color Action|Adv~ USA   A partir de ~  58000000
## # ... with 6 more variables: receita <int>, nota_imdb <dbl>,
## #   likes_facebook <int>, ator_1 <chr>, ator_2 <chr>, ator_3 <chr>

as_tibble(imdb %>% 
  filter(is.na(orcamento), is.na(receita)))

## # A tibble: 137 x 15
##    titulo    ano diretor  duracao cor    generos   pais  classificacao orcamento
##    <chr>   <int> <chr>      <int> <chr>  <chr>     <chr> <chr>             <int>
##  1 The A-~    NA <NA>          60 Color  Action|A~ USA   Outros               NA
##  2 Ben-Hu~  2016 Timur B~     141 Color  Adventur~ USA   A partir de ~        NA
##  3 Hannib~    NA <NA>          44 Color  Crime|Dr~ USA   Outros               NA
##  4 All Th~  1979 Bob Fos~     123 Color  Comedy|D~ USA   A partir de ~        NA
##  5 Darede~    NA <NA>          54 <NA>   Action|A~ USA   Outros               NA
##  6 Bewitc~    NA <NA>          25 Black~ Comedy|F~ USA   Outros               NA
##  7 Consta~    NA <NA>          43 Color  Drama|Fa~ USA   Outros               NA
##  8 Life      NA <NA>          45 Color  Crime|Dr~ USA   Outros               NA
##  9 Sleepy~    NA <NA>          45 Color  Adventur~ USA   Outros               NA
## 10 Last M~    NA <NA>          30 Color  Comedy    USA   Outros               NA
## # ... with 127 more rows, and 6 more variables: receita <int>, nota_imdb <dbl>,
## #   likes_facebook <int>, ator_1 <chr>, ator_2 <chr>, ator_3 <chr>

7.2.5

Exercicio 1

os dados esto confusos, o listado como receita em alguns casos j  o prprio lucro, em outros no  nem o lucro nem a receita;

imdb_prejuizo <- imdb %>% 
  mutate(prejuizo = orcamento - receita)

imdb_prejuizo %>% 
  filter(prejuizo > 0) %>% 
  arrange(prejuizo)

## # A tibble: 1,312 x 16
##    titulo     ano diretor   duracao cor   generos  pais  classificacao orcamento
##    <chr>    <int> <chr>       <int> <chr> <chr>    <chr> <chr>             <int>
##  1 The Hor~  2009 Michel O~      93 Color Documen~ USA   Outros           160000
##  2 Newlywe~  2011 Edward B~      95 Color Comedy|~ USA   Outros             9000
##  3 Shortbu~  2006 John Cam~     101 Color Comedy|~ USA   Outros          2000000
##  4 Slam     1998 Marc Lev~     100 Color Drama    USA   A partir de ~   1000000
##  5 Pink Na~  1971 James Bi~      65 Color Drama|F~ USA   Outros            27000
##  6 The FP   2011 Brandon ~      82 Color Comedy   USA   A partir de ~     60000
##  7 Assault~  2005 Jean-Fra~     109 Color Action|~ USA   A partir de ~  20000000
##  8 The Bus~  2002 Sherman ~     103 Color Drama|M~ USA   Outros           200000
##  9 Latter ~  2003 C. Jay C~     107 Color Comedy|~ USA   A partir de ~    850000
## 10 Happy C~  2014 Joe Swan~      82 Color Comedy|~ USA   A partir de ~     70000
## # ... with 1,302 more rows, and 7 more variables: receita <int>,
## #   nota_imdb <dbl>, likes_facebook <int>, ator_1 <chr>, ator_2 <chr>,
## #   ator_3 <chr>, prejuizo <int>

Exercicio 2

imdb %>% 
  mutate(lucro = receita - orcamento,lucro_medio = mean(lucro, na.rm = TRUE),
    lucro_relativo = (lucro - lucro_medio) / lucro_medio,
    houve_lucro = ifelse(lucro > 0, "sim", "no"))

## # A tibble: 3,807 x 19
##    titulo     ano diretor  duracao cor   generos   pais  classificacao orcamento
##    <chr>    <int> <chr>      <int> <chr> <chr>     <chr> <chr>             <int>
##  1 Avatar   2009 James C~     178 Color Action|A~ USA   A partir de ~ 237000000
##  2 Pirates~  2007 Gore Ve~     169 Color Action|A~ USA   A partir de ~ 300000000
##  3 The Dar~  2012 Christo~     164 Color Action|T~ USA   A partir de ~ 250000000
##  4 John Ca~  2012 Andrew ~     132 Color Action|A~ USA   A partir de ~ 263700000
##  5 Spider-~  2007 Sam Rai~     156 Color Action|A~ USA   A partir de ~ 258000000
##  6 Tangled  2010 Nathan ~     100 Color Adventur~ USA   Livre         260000000
##  7 Avenger~  2015 Joss Wh~     141 Color Action|A~ USA   A partir de ~ 250000000
##  8 Batman ~  2016 Zack Sn~     183 Color Action|A~ USA   A partir de ~ 250000000
##  9 Superma~  2006 Bryan S~     169 Color Action|A~ USA   A partir de ~ 209000000
## 10 Pirates~  2006 Gore Ve~     151 Color Action|A~ USA   A partir de ~ 225000000
## # ... with 3,797 more rows, and 10 more variables: receita <int>,
## #   nota_imdb <dbl>, likes_facebook <int>, ator_1 <chr>, ator_2 <chr>,
## #   ator_3 <chr>, lucro <int>, lucro_medio <dbl>, lucro_relativo <dbl>,
## #   houve_lucro <chr>

Exercicio 3

imdb %>% 
  mutate(idade = ifelse(ano < 2000, "antigo", "recente"))

## # A tibble: 3,807 x 16
##    titulo     ano diretor  duracao cor   generos   pais  classificacao orcamento
##    <chr>    <int> <chr>      <int> <chr> <chr>     <chr> <chr>             <int>
##  1 Avatar   2009 James C~     178 Color Action|A~ USA   A partir de ~ 237000000
##  2 Pirates~  2007 Gore Ve~     169 Color Action|A~ USA   A partir de ~ 300000000
##  3 The Dar~  2012 Christo~     164 Color Action|T~ USA   A partir de ~ 250000000
##  4 John Ca~  2012 Andrew ~     132 Color Action|A~ USA   A partir de ~ 263700000
##  5 Spider-~  2007 Sam Rai~     156 Color Action|A~ USA   A partir de ~ 258000000
##  6 Tangled  2010 Nathan ~     100 Color Adventur~ USA   Livre         260000000
##  7 Avenger~  2015 Joss Wh~     141 Color Action|A~ USA   A partir de ~ 250000000
##  8 Batman ~  2016 Zack Sn~     183 Color Action|A~ USA   A partir de ~ 250000000
##  9 Superma~  2006 Bryan S~     169 Color Action|A~ USA   A partir de ~ 209000000
## 10 Pirates~  2006 Gore Ve~     151 Color Action|A~ USA   A partir de ~ 225000000
## # ... with 3,797 more rows, and 7 more variables: receita <int>,
## #   nota_imdb <dbl>, likes_facebook <int>, ator_1 <chr>, ator_2 <chr>,
## #   ator_3 <chr>, idade <chr>
…
